[
  {
    "model": "jobs.list",
    "pk": 1,
    "fields": {
      "name": "Cardea's Favorites",
      "description": "This is a list of the jobs that Cardea thinks are super cool! Since members of our team have formerly worked at some of these companies we totally think they're awesome opportunities.",
      "image": "https://cardea.imgix.net/media/lists/cover_images/default.png?auto=format&fit=crop&w=220&h=220",
      "curator": "Jainil",
      "jobs": [1, 3, 6]
    }
  },
  {
    "model": "jobs.list",
    "pk": 2,
    "fields": {
      "name": "Big Tech",
      "description": "Ever wanted to work at FAANG? Here's a list of jobs that are open at the biggest tech companies in the world. Companies range from Facebook to Google, Apple, Netflix and Amazon.",
      "image": "https://cardea.imgix.net/media/lists/cover_images/Tech__Startups__LA_7Bu2rrV.png?auto=format&fit=crop&w=220&h=220",
      "curator": "Shukry",
      "jobs": [3, 4, 5, 6]
    }
  },
  {
    "model": "jobs.list",
    "pk": 3,
    "fields": {
      "name": "Work From Home",
      "description": "Ever since the pandemic there have been an increased number of jobs that give you the flexibility to work wherever you want. This is a list curated specifically for those jobs",
      "image": "https://cardea.imgix.net/media/lists/cover_images/Sales.png?auto=format&fit=crop&w=220&h=220",
      "curator": "Jainil",
      "jobs": [2, 4, 7]
    }
  },
  {
    "model": "jobs.list",
    "pk": 4,
    "fields": {
      "name": "Future of Food",
      "description": "Redefining how we eat, feat. Infarm, Memphis Meats & Air Protein. This list is composed of companies that are changing the food that comes onto our dinner tables.",
      "image": "https://cardea.imgix.net/media/lists/cover_images/32eae392-6886-404a-8a3b-cc980501550b.png?auto=format&fit=crop&w=220&h=220",
      "curator": "Kai",
      "jobs": [7, 8]
    }
  },
  {
    "model": "jobs.job",
    "pk": 1,
    "fields": {
      "title": "Application Software Engineer",
      "company": "SpaceX",
      "location": "New York, NY",
      "salary_min": "40000",
      "salary_max": "65000",
      "apply_link": "https://boards.greenhouse.io/spacex/jobs/5027836002",
      "lists": [1]
    }
  },
  {
    "model": "jobs.job",
    "pk": 2,
    "fields": {
      "title": "Product Security Engineer",
      "company": "SpaceX",
      "location": "Hawthorne, California",
      "salary_min": "40000",
      "salary_max": "70000",
      "apply_link": "https://boards.greenhouse.io/spacex/jobs/5026870002",
      "lists": [3]
    }
  },
  {
    "model": "jobs.job",
    "pk": 3,
    "fields": {
      "title": "Project Researcher",
      "company": "Google",
      "location": "New York, NY",
      "salary_min": "60000",
      "salary_max": "75000",
      "apply_link": "https://cardea.work/company/google",
      "lists": [1, 2]
    }
  },
  {
    "model": "jobs.job",
    "pk": 4,
    "fields": {
      "title": "CEO",
      "company": "Google",
      "location": "Remote",
      "salary_min": "60000",
      "salary_max": "65000",
      "apply_link": "https://cardea.work/company/google",
      "lists": [2, 3]
    }
  },
  {
    "model": "jobs.job",
    "pk": 5,
    "fields": {
      "title": "Marketing Manager",
      "company": "Peloton",
      "location": "Miami, FL",
      "salary_min": "70000",
      "salary_max": "75000",
      "apply_link": "https://boards.greenhouse.io/peloton/jobs/2456864",
      "lists": [2]
    }
  },
  {
    "model": "jobs.job",
    "pk": 6,
    "fields": {
      "title": "Executive Assistant",
      "company": "Notion",
      "location": "San Francisco, CA",
      "salary_min": "50000",
      "salary_max": "70000",
      "apply_link": "https://boards.greenhouse.io/notion/jobs/4302660003",
      "lists": [1, 2]
    }
  },
  {
    "model": "jobs.job",
    "pk": 7,
    "fields": {
      "title": "Group Product Manager",
      "company": "Beyond Meat",
      "location": "Remote",
      "salary_min": "45000",
      "salary_max": "60000",
      "apply_link": "https://jobs.lever.co/imperfectfoods/101fee2d-8e1f-4f5d-bf03-38e8b41c603a",
      "lists": [3, 4]
    }
  },
  {
    "model": "jobs.job",
    "pk": 8,
    "fields": {
      "title": "Food Tester",
      "company": "Beyond Meat",
      "location": "San Francisco, CA",
      "salary_min": "40000",
      "salary_max": "60000",
      "apply_link": "https://jobs.smartrecruiters.com/oneclick-ui/company/McDonaldsCorporation/publication/fb47215c-eee1-4a71-9512-511c370d2dc9",
      "lists": [4]
    }
  }
]
